Hands_on_HOMEWORK_III
…
Logistic regression

## Warning: glm.fit: algorithm did not converge

## Warning: glm.fit: fitted probabilities numerically 0 or 1 occurred

## # A tibble: 31 × 5
##    term                estimate std.error statistic p.value
##    <chr>                  <dbl>     <dbl>     <dbl>   <dbl>
##  1 (Intercept)           -260.     27705. -0.00938    0.993
##  2 radius_mean           1304.    740076.  0.00176    0.999
##  3 texture_mean           -83.8    16265. -0.00515    0.996
##  4 perimeter_mean        -848.    605786. -0.00140    0.999
##  5 area_mean             -242.    280272. -0.000864   0.999
##  6 smoothness_mean         38.1    29793.  0.00128    0.999
##  7 compactness_mean       130.     76903.  0.00169    0.999
##  8 concavity_mean         207.     90481.  0.00228    0.998
##  9 concave.points_mean   -448.     83212. -0.00538    0.996
## 10 symmetry_mean           43.2    15360.  0.00281    0.998
## # … with 21 more rows
…
